<svg width="2048" height="2048" xmlns="http://www.w3.org/2000/svg" xmlns:xlink="http://www.w3.org/1999/xlink">
	<polyline points="1026.718281828459,1024.0 1025.0654838206729,1024.559209047721 1024.8225410130624,1025.1916563854413 1024.2100191087445,1025.7296629751152 1023.256528777207,1025.9603725010063 1022.1115854015119,1025.6729893478082 1021.0523740185533,1024.7265245529245 1020.4530731039869,1023.12576103834 1020.7096891164192,1021.0850389190939 1022.1242995987584,1019.0541845144902 1024.7672163379034,1017.681404984968 1028.350872096283,1017.6966735598145 1032.1606610004972,1019.7169547032815 1035.0901699437495,1024.0 1035.816396643577,1030.2017233733086 1033.1221196205668,1037.2156718290976 1026.3291476074126,1043.1822563394394 1015.7547777909382,1045.7408641892143 1003.0571611785095,1042.553736181275 991.3103269351452,1032.0572807602396 984.6639779451585,1014.3045413437442 987.5098931333208,991.6725862333357 1003.1981637866716,969.1500657552689 1032.5085595709702,953.9257074775668 1072.2519109512948,954.0950385674132 1114.5031173488428,976.5002997826152 1146.991869381244,1023.9999999999991 1155.0458469000205,1092.7781661541146 1125.1658568392972,1170.564046505513 1049.8306427902842,1236.7344827089487 932.5590844775282,1265.1098785823633 791.7403583651183,1229.7640873418345 661.4659703051516,1113.3566129155615 587.7568305007316,916.4757158195284 619.3185135829476,665.4834874857888 793.3041012521439,415.70490782244985 1118.3613716185741,246.8641872382027 1559.1218925605258,248.74209780135914" stroke="black" fill="transparent" fill-opacity="0" stroke-width="5" id="0"/>
	<use xlink:href="#0" x="0" y="0" transform="rotate(72.0,1024.0,1024.0)"/>
	<use xlink:href="#0" x="0" y="0" transform="rotate(144.0,1024.0,1024.0)"/>
	<use xlink:href="#0" x="0" y="0" transform="rotate(216.0,1024.0,1024.0)"/>
	<use xlink:href="#0" x="0" y="0" transform="rotate(288.0,1024.0,1024.0)"/>
	<polyline points="1026.718281828459,1024.0 1025.1906243940755,1023.3751121127452 1025.0271015761298,1022.5119864757445 1024.2930505643549,1021.5865114654034 1022.8407533993209,1020.9433179278694 1020.7096891164192,1021.0850389190939 1018.2609517266396,1022.5854516457448 1016.2830149944504,1025.9020659732178 1016.0005473911013,1031.0868966029484 1018.9041724300042,1037.4365930137299 1026.3291476074126,1043.1822563394394 1038.7598995955193,1045.3834062036444 1054.9357280374347,1040.2363225801466 1070.9787137637477,1024.0 1079.9340026094055,994.6435708102259 1072.2519109512955,954.0950385674136 1037.767138581134,910.6174129611006 969.5400857650992,880.4010078665967 869.4254268065168,887.058877747646 754.3868938894715,957.5463377604618 661.4659703051502,1113.356612915556 648.1960056198864,1356.9332869831842 784.6045751997517,1655.2338571519829 1133.4203587621448,1925.157729913361" stroke="black" fill="transparent" fill-opacity="0" stroke-width="5" id="1"/>
	<use xlink:href="#1" x="0" y="0" transform="rotate(45.0,1024.0,1024.0)"/>
	<use xlink:href="#1" x="0" y="0" transform="rotate(90.0,1024.0,1024.0)"/>
	<use xlink:href="#1" x="0" y="0" transform="rotate(135.0,1024.0,1024.0)"/>
	<use xlink:href="#1" x="0" y="0" transform="rotate(180.0,1024.0,1024.0)"/>
	<use xlink:href="#1" x="0" y="0" transform="rotate(225.0,1024.0,1024.0)"/>
	<use xlink:href="#1" x="0" y="0" transform="rotate(270.0,1024.0,1024.0)"/>
	<use xlink:href="#1" x="0" y="0" transform="rotate(315.0,1024.0,1024.0)"/>
</svg>